date,time,endTime,description
2023-09-05,10:30,*,A Point +one
2023-09-05,10:30,*,A Point +two
2023-09-05,10:30,*,A Point +three
2023-09-05,10:30,*,A Point +one
2023-09-05,10:30,*,A Point +two
2023-09-05,10:30,*,A Point +three
2023-09-05,10:30,*,A Point +one
2023-09-05,10:30,*,A Point +two
2023-09-05,10:30,*,A Point +three
2023-09-05,10:30,*,A Point +one
2023-09-05,10:30,*,A Point +two
2023-09-05,10:30,*,A Point +three
2023-09-05,10:30,*,A Point +one
2023-09-05,10:30,*,A Point +two
2023-09-05,10:30,*,A Point +three
2023-09-05,10:30,*,A Point +one
2023-09-05,10:30,*,A Point +two
2023-09-05,10:30,*,A Point +three
2023-09-05,10:30,*,A Point +one
2023-09-05,10:30,*,A Point +two
2023-09-05,10:30,*,A Point +three
2023-09-05,10:30,*,A Point +one
2023-09-05,10:30,*,A Point +two
2023-09-05,10:30,*,A Point +three
2023-09-05,10:30,*,A Point +one
2023-09-05,10:30,*,A Point +two
2023-09-05,10:30,*,A Point +three
2023-09-05,10:30,*,A Point +one
2023-09-05,10:30,*,A Point +two
2023-09-05,10:30,*,A Point +three
2023-09-05,10:30,*,A Point +one
2023-09-05,10:30,*,A Point +two
2023-09-05,10:30,*,A Point +three
2023-09-05,10:30,*,A Point +one
2023-09-05,10:30,*,A Point +two
2023-09-05,10:30,*,A Point +three
2023-09-05,10:30,*,A Point +one
2023-09-05,10:30,*,A Point +two
2023-09-05,10:30,*,A Point +three
2023-09-05,10:30,*,A Point +one
2023-09-05,10:30,*,A Point +two
2023-09-05,10:30,*,A Point +three
2023-09-05,10:30,*,A Point +one
2023-09-05,10:30,*,A Point +two
2023-09-05,10:30,*,A Point +three
2023-09-05,10:30,*,A Point +one
2023-09-05,10:30,*,A Point +two
2023-09-05,10:30,*,A Point +three
2023-09-05,10:30,*,A Point +one
2023-09-05,10:30,*,A Point +two
2023-09-05,10:30,*,A Point +three
2023-09-05,10:30,*,A Point +one
2023-09-05,10:30,*,A Point +two
2023-09-05,10:30,*,A Point +three
2023-09-05,10:30,*,A Point +one
2023-09-05,10:30,*,A Point +two
2023-09-05,10:30,*,A Point +three
2023-09-05,10:30,*,A Point +one
2023-09-05,10:30,*,A Point +two
2023-09-05,10:30,*,A Point +three
2023-09-05,10:30,*,A Point +one
2023-09-05,10:30,*,A Point +two
2023-09-05,10:30,*,A Point +three
2023-09-05,10:30,*,A Point +one
2023-09-05,10:30,*,A Point +two
2023-09-05,10:30,*,A Point +three
2023-09-05,10:30,*,A Point +one
2023-09-05,10:30,*,A Point +two
2023-09-05,10:30,*,A Point +three
2023-09-05,10:30,*,A Point +one
2023-09-05,10:30,*,A Point +two
2023-09-05,10:30,*,A Point +three
2023-09-05,10:30,*,A Point +one
2023-09-05,10:30,*,A Point +two
2023-09-05,10:30,*,A Point +three
2023-09-05,10:30,*,A Point +one
2023-09-05,10:30,*,A Point +two
2023-09-05,10:30,*,A Point +three
2023-09-05,10:30,*,A Point +one
2023-09-05,10:30,*,A Point +two
2023-09-05,10:30,*,A Point +three
2023-09-05,10:30,*,A Point +one
2023-09-05,10:30,*,A Point +two
2023-09-05,10:30,*,A Point +three
2023-09-05,10:30,*,A Point +one
2023-09-05,10:30,*,A Point +two
2023-09-05,10:30,*,A Point +three
2023-09-05,10:30,*,A Point +one
2023-09-05,10:30,*,A Point +two
2023-09-05,10:30,*,A Point +three
2023-09-05,10:30,*,A Point +one
2023-09-05,10:30,*,A Point +two
2023-09-05,10:30,*,A Point +three
2023-09-05,10:30,*,A Point +one
2023-09-05,10:30,*,A Point +two
2023-09-05,10:30,*,A Point +three
2023-09-05,10:30,*,A Point +one
2023-09-05,10:30,*,A Point +two
2023-09-05,10:30,*,A Point +three
2023-09-05,10:30,*,A Point +one
2023-09-05,10:30,*,A Point +two
2023-09-05,10:30,*,A Point +three
2023-09-05,10:30,*,A Point +one
2023-09-05,10:30,*,A Point +two
2023-09-05,10:30,*,A Point +three
2023-09-05,10:30,*,A Point +one
2023-09-05,10:30,*,A Point +two
2023-09-05,10:30,*,A Point +three
2023-09-05,10:30,*,A Point +one
2023-09-05,10:30,*,A Point +two
2023-09-05,10:30,*,A Point +three
2023-09-05,10:30,*,A Point +one
2023-09-05,10:30,*,A Point +two
2023-09-05,10:30,*,A Point +three
2023-09-05,10:30,*,A Point +one
2023-09-05,10:30,*,A Point +two
2023-09-05,10:30,*,A Point +three
2023-09-05,10:30,*,A Point +one
2023-09-05,10:30,*,A Point +two
2023-09-05,10:30,*,A Point +three
2023-09-05,10:30,*,A Point +one
2023-09-05,10:30,*,A Point +two
2023-09-05,10:30,*,A Point +three
2023-09-05,10:30,*,A Point +one
2023-09-05,10:30,*,A Point +two
2023-09-05,10:30,*,A Point +three
2023-09-05,10:30,*,A Point +one
2023-09-05,10:30,*,A Point +two
2023-09-05,10:30,*,A Point +three
2023-09-05,10:30,*,A Point +one
2023-09-05,10:30,*,A Point +two
2023-09-05,10:30,*,A Point +three
2023-09-05,10:30,*,A Point +one
2023-09-05,10:30,*,A Point +two
2023-09-05,10:30,*,A Point +three
2023-09-05,10:30,*,A Point +one
2023-09-05,10:30,*,A Point +two
2023-09-05,10:30,*,A Point +three
2023-09-05,10:30,*,A Point +one
2023-09-05,10:30,*,A Point +two
2023-09-05,10:30,*,A Point +three
2023-09-05,10:30,*,A Point +one
2023-09-05,10:30,*,A Point +two
2023-09-05,10:30,*,A Point +three
2023-09-05,10:30,*,A Point +one
2023-09-05,10:30,*,A Point +two
2023-09-05,10:30,*,A Point +three
2023-09-05,10:30,*,A Point +one
2023-09-05,10:30,*,A Point +two
2023-09-05,10:30,*,A Point +three
2023-09-05,10:30,*,A Point +one
2023-09-05,10:30,*,A Point +two
2023-09-05,10:30,*,A Point +three
2023-09-05,10:30,*,A Point +one
2023-09-05,10:30,*,A Point +two
2023-09-05,10:30,*,A Point +three
2023-09-05,10:30,*,A Point +one
2023-09-05,10:30,*,A Point +two
2023-09-05,10:30,*,A Point +three
2023-09-05,10:30,*,A Point +one
2023-09-05,10:30,*,A Point +two
2023-09-05,10:30,*,A Point +three
2023-09-05,10:30,*,A Point +one
2023-09-05,10:30,*,A Point +two
2023-09-05,10:30,*,A Point +three
2023-09-05,10:30,*,A Point +one
2023-09-05,10:30,*,A Point +two
2023-09-05,10:30,*,A Point +three
2023-09-05,10:30,*,A Point +one
2023-09-05,10:30,*,A Point +two
2023-09-05,10:30,*,A Point +three
2023-09-05,10:30,*,A Point +one
2023-09-05,10:30,*,A Point +two
2023-09-05,10:30,*,A Point +three
2023-09-05,10:30,*,A Point +one
2023-09-05,10:30,*,A Point +two
2023-09-05,10:30,*,A Point +three
2023-09-05,10:30,*,A Point +one
2023-09-05,10:30,*,A Point +two
2023-09-05,10:30,*,A Point +three
2023-09-05,10:30,*,A Point +one
2023-09-05,10:30,*,A Point +two
2023-09-05,10:30,*,A Point +three
2023-09-05,10:30,*,A Point +one
2023-09-05,10:30,*,A Point +two
2023-09-05,10:30,*,A Point +three
2023-09-05,10:30,*,A Point +one
2023-09-05,10:30,*,A Point +two
2023-09-05,10:30,*,A Point +three
2023-09-05,10:30,*,A Point +one
2023-09-05,10:30,*,A Point +two
2023-09-05,10:30,*,A Point +three
2023-09-05,10:30,*,A Point +one
2023-09-05,10:30,*,A Point +two
2023-09-05,10:30,*,A Point +three
2023-09-05,10:30,*,A Point +one
2023-09-05,10:30,*,A Point +two
2023-09-05,10:30,*,A Point +three
